 0x000000000000000e (SONAME)             Library soname: [libv8_libplatform.so]
__gmon_start__ w
_ITM_deregisterTMCloneTable w
_ITM_registerTMCloneTable w
__cxa_finalize w
_Z8V8_FatalPKciS0_z U
_Z9V8_DcheckPKciS0_ U
_ZN2v84base17ConditionVariable4WaitEPNS0_5MutexE U
_ZN2v84base17ConditionVariable7WaitForEPNS0_5MutexERKNS0_9TimeDeltaE U
_ZN2v84base17ConditionVariable9NotifyOneEv U
_ZN2v84base17ConditionVariableC1Ev U
_ZN2v84base17ConditionVariableD1Ev U
_ZN2v84base17MakeCheckOpStringIiiEEPNSt4__Cr12basic_stringIcNS2_11char_traitsIcEENS2_9allocatorIcEEEET_T0_PKc U
_ZN2v84base17PrintCheckOperandIiEENSt4__Cr9enable_ifIXaantsr3std11is_functionINS2_14remove_pointerIT_E4typeEEE5valuesr19has_output_operatorIS5_EE5valueENS2_12basic_stringIcNS2_11char_traitsIcEENS2_9allocatorIcEEEEE4typeES5_ U
_ZN2v84base5Mutex4LockEv U
_ZN2v84base5Mutex6UnlockEv U
_ZN2v84base5MutexC1Ev U
_ZN2v84base5MutexD1Ev U
_ZNKSt4__Cr6locale9use_facetERNS0_2idE U
_ZNKSt4__Cr8ios_base6getlocEv U
_ZNSt4__Cr19__shared_weak_count14__release_weakEv U
_ZNSt4__Cr23__libcpp_debug_functionE U
_ZNSt4__Cr5ctypeIcE2idE U
_ZNSt4__Cr6localeC1Ev U
_ZNSt4__Cr6localeD1Ev U
_ZNSt4__Cr7num_putIcNS_19ostreambuf_iteratorIcNS_11char_traitsIcEEEEE2idE U
_ZNSt4__Cr8ios_base4initEPv U
_ZNSt4__Cr8ios_base5clearEj U
_ZNSt4__Cr8ios_baseD2Ev U
_ZSt18uncaught_exceptionv U
_ZdlPv U
_Znwm U
__stack_chk_fail U
abort U
memcpy U
memmove U
memset U
strlen U
_ZN2v84base17PrintCheckOperandIjEENSt4__Cr9enable_ifIXaantsr3std11is_functionINS2_14remove_pointerIT_E4typeEEE5valuesr19has_output_operatorIS5_EE5valueENS2_12basic_stringIcNS2_11char_traitsIcEENS2_9allocatorIcEEEEE4typeES5_ U
_ZN2v84base17PrintCheckOperandImEENSt4__Cr9enable_ifIXaantsr3std11is_functionINS2_14remove_pointerIT_E4typeEEE5valuesr19has_output_operatorIS5_EE5valueENS2_12basic_stringIcNS2_11char_traitsIcEENS2_9allocatorIcEEEEE4typeES5_ U
_ZNSt4__Cr19__shared_weak_count4lockEv U
_ZN2v84base13PageAllocatorC1Ev U
_ZN2v84base2OS17TimeCurrentMillisEv U
_ZN2v84base5debug10StackTraceC1Ev U
_ZN2v84base5debug10StackTraceD1Ev U
_ZN2v84base5debug22DisableSignalStackDumpEv U
_ZN2v84base5debug27EnableInProcessStackDumpingEv U
_ZN2v84base7SysInfo18NumberOfProcessorsEv U
_ZN2v84base9TimeTicks17HighResolutionNowEv U
_ZNK2v84base5debug10StackTrace5PrintEv U
_ZNKSt4__Cr19__shared_weak_count13__get_deleterERKSt9type_info U
_ZNSt4__Cr19__shared_weak_countD2Ev U
_ZN2v84base6Thread4JoinEv U
_ZN2v84base6Thread5StartEv U
_ZN2v84base6ThreadC2ERKNS1_7OptionsE U
_ZN2v84base6ThreadD2Ev U
_ZN2v84base17ConditionVariable9NotifyAllEv U
_ZN2v84base2OS5SleepENS0_9TimeDeltaE U
_ZN2v84base9Semaphore4WaitEv U
_ZN2v84base9Semaphore6SignalEv U
_ZN2v84base9SemaphoreC1Ei U
_ZN2v84base9SemaphoreD1Ev U
bcmp U
_ZN2v84base2OS18GetCurrentThreadIdEv U
_ZN2v84base2OS19GetCurrentProcessIdEv U
_ZdaPv U
_Znam U
__isnan U
memchr U
_ZN2v84base11ThreadTicks3NowEv U
_ZNSt4__Cr12__next_primeEm U
ceilf U
free U
strchr U
strcmp U
strdup U
_ZN2v88platform7tracing17TracingController26AddTraceEventWithTimestampEcPKhPKcS6_mmiPS6_S4_PKmPNSt4__Cr10unique_ptrINS_24ConvertableToTraceFormatENSA_14default_deleteISC_EEEEjl T
_ZTVN2v88platform7tracing17TracingControllerE D
_ZN2v88platform15DefaultPlatform37EnsureBackgroundTaskRunnerInitializedEv T
_ZN2v88platform16DelayedTaskQueue9TerminateEv T
_ZN2v88platform7tracing11TraceObject10InitializeEcPKhPKcS6_mmiPS6_S4_PKmPNSt4__Cr10unique_ptrINS_24ConvertableToTraceFormatENSA_14default_deleteISC_EEEEjll T
_ZN2v88platform12WorkerThread3RunEv T
_ZN2v88platform16DelayedTaskQueue7GetNextEv T
_ZN2v88platform9TaskQueueD1Ev T
_ZN2v88platform27DefaultForegroundTaskRunner12RunTaskScopeD2Ev T
_ZTCNSt4__Cr19basic_ostringstreamIcNS_11char_traitsIcEENS_9allocatorIcEEEE0_NS_13basic_ostreamIcS2_EE V
_ZN2v88platform30DefaultWorkerThreadsTaskRunner12WorkerThreadC2EPS1_ T
_ZNK2v88platform7tracing11TraceConfig22IsCategoryGroupEnabledEPKc T
_ZN2v88platform7tracing17TracingController24RemoveTraceStateObserverEPNS_17TracingController18TraceStateObserverE T
_ZTVN2v88platform12WorkerThreadE D
_ZN2v88platform15DefaultPlatform20GetStackTracePrinterEv T
_ZN2v88platform18NewDefaultPlatformEiNS0_15IdleTaskSupportENS0_21InProcessStackDumpingENSt4__Cr10unique_ptrINS_17TracingControllerENS3_14default_deleteIS5_EEEE T
_ZN2v88platform16DelayedTaskQueue6AppendENSt4__Cr10unique_ptrINS_4TaskENS2_14default_deleteIS4_EEEE T
_ZN2v88platform30DefaultWorkerThreadsTaskRunnerC2EjPFdvE T
_ZN2v88platform27DefaultForegroundTaskRunner12RunTaskScopeC1ENSt4__Cr10shared_ptrIS1_EE T
_ZN2v88platform15DefaultJobState4JoinEv T
_ZN2v88platform7tracing17TracingController23GetCategoryGroupEnabledEPKc T
_ZN2v88platform7tracing17TracingController24UpdateTraceEventDurationEPKhPKcm T
_ZN2v88platform27DefaultForegroundTaskRunner12RunTaskScopeD1Ev T
_ZN2v88platform7tracing17TracingController10InitializeEPNS1_11TraceBufferE T
_ZN2v88platform7tracing17TracingController20GetCategoryGroupNameEPKh T
_ZTVNSt4__Cr15basic_stringbufIcNS_11char_traitsIcEENS_9allocatorIcEEEE V
_ZN2v88platform30DefaultWorkerThreadsTaskRunner9TerminateEv T
_ZN2v88platform30DefaultWorkerThreadsTaskRunner27MonotonicallyIncreasingTimeEv T
_ZN2v88platform7tracing17TracingControllerC2Ev T
_ZN2v88platform27DefaultForegroundTaskRunner16IdleTasksEnabledEv T
_ZN2v88platform27DefaultForegroundTaskRunner23MoveExpiredDelayedTasksERKNS_4base9LockGuardINS2_5MutexELNS2_12NullBehaviorE0EEE T
_ZN2v88platform27DefaultForegroundTaskRunner9TerminateEv T
_ZN2v88platform15DefaultPlatform27MonotonicallyIncreasingTimeEv T
_ZN2v88platform15DefaultPlatformD2Ev T
_ZTVN2v88platform15DefaultPlatformE D
_ZN2v88platform15DefaultJobState43WaitForParticipationOpportunityLockRequiredEv T
_ZN2v88platform15PumpMessageLoopEPNS_8PlatformEPNS_7IsolateENS0_19MessageLoopBehaviorE T
_ZN2v88platform7tracing11TraceConfig24CreateDefaultTraceConfigEv T
_ZN2v88platform7tracing17TracingController13AddTraceEventEcPKhPKcS6_mmiPS6_S4_PKmPNSt4__Cr10unique_ptrINS_24ConvertableToTraceFormatENSA_14default_deleteISC_EEEEj T
_ZN2v88platform15DefaultJobStateD2Ev T
_ZN2v88platform15DefaultPlatform15PumpMessageLoopEPNS_7IsolateENS0_19MessageLoopBehaviorE T
_ZN2v88platform15DefaultPlatform18CallOnWorkerThreadENSt4__Cr10unique_ptrINS_4TaskENS2_14default_deleteIS4_EEEE T
_ZN2v88platform20SetTracingControllerEPNS_8PlatformEPNS0_7tracing17TracingControllerE T
_ZN2v88platform7tracing17TracingControllerC1Ev T
_ZN2v88platform30DefaultWorkerThreadsTaskRunner12WorkerThreadD2Ev T
_ZN2v88platform30DefaultWorkerThreadsTaskRunner7GetNextEv T
_ZN2v88platform9TaskQueue30BlockUntilQueueEmptyForTestingEv T
_ZN2v88platform7tracing11TraceObjectD2Ev T
_ZN2v88platform15DefaultPlatformD1Ev T
_ZN2v88platform15DefaultPlatform20GetTracingControllerEv T
_ZN2v88platform30DefaultWorkerThreadsTaskRunnerD2Ev T
_ZN2v88platform7tracing17TracingController11StopTracingEv T
_ZN2v88platform15DefaultJobStateD1Ev T
_ZN2v88platform15DefaultPlatform25CallDelayedOnWorkerThreadENSt4__Cr10unique_ptrINS_4TaskENS2_14default_deleteIS4_EEEEd T
_ZN2v88platform30DefaultWorkerThreadsTaskRunner12WorkerThreadD1Ev T
_ZN2v88platform30DefaultWorkerThreadsTaskRunner15PostDelayedTaskENSt4__Cr10unique_ptrINS_4TaskENS2_14default_deleteIS4_EEEEd T
_ZN2v88platform9TaskQueue6AppendENSt4__Cr10unique_ptrINS_4TaskENS2_14default_deleteIS4_EEEE T
_ZN2v88platform7tracing11TraceObjectD1Ev T
_ZN2v88platform7tracing16TraceBufferChunk13AddTraceEventEPm T
_ZTVNSt4__Cr15basic_streambufIcNS_11char_traitsIcEEEE V
_ZN2v88platform15DefaultPlatformD0Ev T
_ZN2v88platform7tracing11TraceWriter21CreateJSONTraceWriterERNSt4__Cr13basic_ostreamIcNS3_11char_traitsIcEEEERKNS3_12basic_stringIcS6_NS3_9allocatorIcEEEE T
_ZN2v88platform27DefaultForegroundTaskRunner12RunTaskScopeC2ENSt4__Cr10shared_ptrIS1_EE T
_ZN2v88platform15DefaultJobState10DidRunTaskEv T
_ZN2v88platform15DefaultPlatform12RunIdleTasksEPNS_7IsolateEd T
_ZN2v88platform15DefaultPlatformC1EiNS0_15IdleTaskSupportENSt4__Cr10unique_ptrINS_17TracingControllerENS3_14default_deleteIS5_EEEE T
_ZN2v88platform30DefaultWorkerThreadsTaskRunnerD1Ev T
_ZN2v88platform16DelayedTaskQueueC1EPFdvE T
_ZN2v88platform30DefaultWorkerThreadsTaskRunner12WorkerThread3RunEv T
_ZN2v88platform27DefaultForegroundTaskRunner19PostNonNestableTaskENSt4__Cr10unique_ptrINS_4TaskENS2_14default_deleteIS4_EEEE T
_ZN2v88platform15DefaultJobStateD0Ev T
_ZN2v88platform30DefaultWorkerThreadsTaskRunner12WorkerThreadD0Ev T
_ZN2v88platform16DelayedTaskQueue27MonotonicallyIncreasingTimeEv T
_ZN2v88platform27DefaultForegroundTaskRunner26PostNonNestableDelayedTaskENSt4__Cr10unique_ptrINS_4TaskENS2_14default_deleteIS4_EEEEd T
_ZN2v88platform16DefaultJobHandle6CancelEv T
_ZN2v88platform16DefaultJobHandleC2ENSt4__Cr10shared_ptrINS0_15DefaultJobStateEEE T
_ZN2v88platform16DefaultJobHandleD2Ev T
_ZN2v88platform30DefaultWorkerThreadsTaskRunner12PostIdleTaskENSt4__Cr10unique_ptrINS_8IdleTaskENS2_14default_deleteIS4_EEEE T
_ZN2v88platform7tracing11TraceBuffer27CreateTraceBufferRingBufferEmPNS1_11TraceWriterE T
_ZN2v88platform7tracing16TraceBufferChunk5ResetEj T
_ZN2v88platform7tracing17TracingController31CurrentCpuTimestampMicrosecondsEv T
_ZN2v88platform16DefaultJobHandleC1ENSt4__Cr10shared_ptrINS0_15DefaultJobStateEEE T
_ZN2v88platform30DefaultWorkerThreadsTaskRunner12WorkerThreadC1EPS1_ T
_ZN2v88platform30DefaultWorkerThreadsTaskRunnerD0Ev T
_ZTVN2v88platform30DefaultWorkerThreadsTaskRunnerE D
_ZN2v88platform12WorkerThreadC2EPNS0_9TaskQueueE T
_ZN2v88platform27DefaultForegroundTaskRunner17WaitForTaskLockedERKNS_4base9LockGuardINS2_5MutexELNS2_12NullBehaviorE0EEE T
_ZTVNSt4__Cr19basic_ostringstreamIcNS_11char_traitsIcEENS_9allocatorIcEEEE V
_ZN2v88platform15DefaultPlatform25SetTimeFunctionForTestingEPFdvE T
_ZN2v88platform16DelayedTaskQueue23PopTaskFromDelayedQueueEd T
_ZN2v88platform27DefaultForegroundTaskRunner15PostDelayedTaskENSt4__Cr10unique_ptrINS_4TaskENS2_14default_deleteIS4_EEEEd T
_ZN2v88platform16DefaultJobHandleD1Ev T
_ZN2v88platform9TaskQueueC2Ev T
_ZN2v88platform7tracing17TracingController21AddTraceStateObserverEPNS_17TracingController18TraceStateObserverE T
_ZN2v88platform16DelayedTaskQueue13AppendDelayedENSt4__Cr10unique_ptrINS_4TaskENS2_14default_deleteIS4_EEEEd T
_ZTVN2v88platform27DefaultForegroundTaskRunnerE D
_ZN2v88platform15DefaultPlatform21NumberOfWorkerThreadsEv T
_ZN2v88platform27DefaultForegroundTaskRunner27MonotonicallyIncreasingTimeEv T
_ZN2v88platform16DefaultJobHandleD0Ev T
_ZTVN2v88platform15DefaultJobStateE D
_ZN2v88platform15DefaultPlatform16GetPageAllocatorEv T
_ZN2v88platform15DefaultPlatformC2EiNS0_15IdleTaskSupportENSt4__Cr10unique_ptrINS_17TracingControllerENS3_14default_deleteIS5_EEEE T
_ZN2v88platform30DefaultWorkerThreadsTaskRunnerC1EjPFdvE T
_ZN2v88platform9TaskQueueC1Ev T
_ZN2v88platform7tracing11TraceObject14UpdateDurationEll T
_ZN2v88platform27DefaultForegroundTaskRunner12PostIdleTaskENSt4__Cr10unique_ptrINS_8IdleTaskENS2_14default_deleteIS4_EEEE T
_ZN2v88platform27DefaultForegroundTaskRunner21PostDelayedTaskLockedENSt4__Cr10unique_ptrINS_4TaskENS2_14default_deleteIS4_EEEEdNS1_11NestabilityERKNS_4base9LockGuardINS9_5MutexELNS9_12NullBehaviorE0EEE T
_ZN2v88platform15DefaultPlatform22CurrentClockTimeMillisEv T
_ZN2v88platform7tracing17TracingController28CurrentTimestampMicrosecondsEv T
_ZN2v88platform27DefaultForegroundTaskRunner8PostTaskENSt4__Cr10unique_ptrINS_4TaskENS2_14default_deleteIS4_EEEE T
_ZNK2v88platform27DefaultForegroundTaskRunner22HasPoppableTaskInQueueEv T
_ZN2v88platform15DefaultPlatform23GetForegroundTaskRunnerEPNS_7IsolateE T
_ZN2v88platform16DelayedTaskQueueD2Ev T
_ZN2v88platform7tracing17TracingControllerD2Ev T
_ZN2v88platform12WorkerThreadD2Ev T
_ZN2v88platform27DefaultForegroundTaskRunnerC2ENS0_15IdleTaskSupportEPFdvE T
_ZN2v88platform16DefaultJobHandle4JoinEv T
_ZN2v88platform12RunIdleTasksEPNS_8PlatformEPNS_7IsolateEd T
_ZN2v88platform15DefaultPlatform21NotifyIsolateShutdownEPNS_7IsolateE T
_ZN2v88platform15DefaultPlatform7PostJobENS_12TaskPriorityENSt4__Cr10unique_ptrINS_7JobTaskENS3_14default_deleteIS5_EEEE T
_ZN2v88platform21NotifyIsolateShutdownEPNS_8PlatformEPNS_7IsolateE T
_ZN2v88platform30DefaultWorkerThreadsTaskRunner8PostTaskENSt4__Cr10unique_ptrINS_4TaskENS2_14default_deleteIS4_EEEE T
_ZN2v88platform16DelayedTaskQueueC2EPFdvE T
_ZN2v88platform9TaskQueue7GetNextEv T
_ZN2v88platform7tracing17TracingController12StartTracingEPNS1_11TraceConfigE T
_ZN2v88platform7tracing17TracingController31UpdateCategoryGroupEnabledFlagsEv T
_ZN2v88platform16DelayedTaskQueueD1Ev T
_ZN2v88platform30DefaultWorkerThreadsTaskRunner16IdleTasksEnabledEv T
_ZN2v88platform7tracing11TraceConfig19AddIncludedCategoryEPKc T
_ZN2v88platform7tracing11TraceObject20InitializeForTestingEcPKhPKcS6_mmiPS6_S4_PKmPNSt4__Cr10unique_ptrINS_24ConvertableToTraceFormatENSA_14default_deleteISC_EEEEjiillmm T
_ZN2v88platform7tracing17TracingControllerD1Ev T
_ZN2v88platform12WorkerThreadD1Ev T
_ZN2v88platform27DefaultForegroundTaskRunner14PostTaskLockedENSt4__Cr10unique_ptrINS_4TaskENS2_14default_deleteIS4_EEEENS1_11NestabilityERKNS_4base9LockGuardINS9_5MutexELNS9_12NullBehaviorE0EEE T
_ZN2v88platform15DefaultJobState25NotifyConcurrencyIncreaseEv T
_ZTVNSt4__Cr18basic_stringstreamIcNS_11char_traitsIcEENS_9allocatorIcEEEE V
_ZN2v88platform7tracing11TraceWriter21CreateJSONTraceWriterERNSt4__Cr13basic_ostreamIcNS3_11char_traitsIcEEEE T
_ZN2v88platform27DefaultForegroundTaskRunner29PopTaskFromDelayedQueueLockedERKNS_4base9LockGuardINS2_5MutexELNS2_12NullBehaviorE0EEEPNS1_11NestabilityE T
_ZNK2v88platform15DefaultJobState20CappedMaxConcurrencyEv T
_ZN2v88platform7tracing17TracingController30UpdateCategoryGroupEnabledFlagEm T
_ZN2v88platform27DefaultForegroundTaskRunnerC1ENS0_15IdleTaskSupportEPFdvE T
_ZN2v88platform19NewDefaultJobHandleEPNS_8PlatformENS_12TaskPriorityENSt4__Cr10unique_ptrINS_7JobTaskENS4_14default_deleteIS6_EEEEm T
_ZTCNSt4__Cr18basic_stringstreamIcNS_11char_traitsIcEENS_9allocatorIcEEEE0_NS_13basic_istreamIcS2_EE V
_ZN2v88platform7tracing17TracingControllerD0Ev T
_ZN2v88platform12WorkerThreadD0Ev T
_ZN2v88platform15DefaultPlatform16IdleTasksEnabledEPNS_7IsolateE T
_ZN2v88platform15DefaultJobState13CancelAndWaitEv T
_ZN2v88platform27DefaultForegroundTaskRunner16PopTaskFromQueueENS0_19MessageLoopBehaviorE T
_ZN2v88platform7tracing16TraceBufferChunkC2Ej T
_ZN2v88platform12WorkerThreadC1EPNS0_9TaskQueueE T
_ZN2v88platform15DefaultJobState15CanRunFirstTaskEv T
_ZTVN2v88platform16DefaultJobHandleE D
_ZN2v88platform27DefaultForegroundTaskRunner20PopTaskFromIdleQueueEv T
_ZN2v88platform15DefaultJobState18CallOnWorkerThreadENSt4__Cr10unique_ptrINS_4TaskENS2_14default_deleteIS4_EEEE T
_ZTVN2v88platform30DefaultWorkerThreadsTaskRunner12WorkerThreadE D
_ZN2v88platform7tracing16TraceBufferChunkC1Ej T
_ZNK2v88platform27DefaultForegroundTaskRunner23NonNestableTasksEnabledEv T
_ZN2v88platform15DefaultPlatform20SetTracingControllerENSt4__Cr10unique_ptrINS_17TracingControllerENS2_14default_deleteIS4_EEEE T
_ZN2v88platform9TaskQueue9TerminateEv T
_ZN2v88platform9TaskQueueD2Ev T
