 0x000000000000000e (SONAME)             Library soname: [libv8_libbase.so]
__gmon_start__ w
_ITM_deregisterTMCloneTable w
_ITM_registerTMCloneTable w
__cxa_finalize w
_ZdlPv U
_ZNSt4__Cr23__libcpp_debug_functionE U
_ZNSt4__Cr6localeC1Ev U
_ZNSt4__Cr6localeD1Ev U
_ZNSt4__Cr8ios_base4initEPv U
_ZNSt4__Cr8ios_baseD2Ev U
_Znwm U
__stack_chk_fail U
abort U
memcpy U
memset U
_ZNKSt4__Cr6locale9use_facetERNS0_2idE U
_ZNKSt4__Cr8ios_base6getlocEv U
_ZNSt4__Cr5ctypeIcE2idE U
_ZNSt4__Cr8ios_base5clearEj U
_ZSt18uncaught_exceptionv U
strlen U
_Znam U
floor U
scalbn U
sqrt U
_ZNSt4__Cr7num_putIcNS_19ostreambuf_iteratorIcNS_11char_traitsIcEEEEE2idE U
__ctype_b_loc U
fflush U
stderr U
stdout U
sched_yield U
clock_gettime U
pthread_cond_broadcast U
pthread_cond_destroy U
pthread_cond_init U
pthread_cond_signal U
pthread_cond_timedwait U
pthread_cond_wait U
pthread_condattr_destroy U
pthread_condattr_init U
pthread_condattr_setclock U
pthread_mutex_destroy U
pthread_mutex_init U
pthread_mutex_lock U
pthread_mutex_trylock U
pthread_mutex_unlock U
pthread_mutexattr_destroy U
pthread_mutexattr_init U
pthread_mutexattr_settype U
pthread_rwlock_destroy U
pthread_rwlock_init U
pthread_rwlock_rdlock U
pthread_rwlock_tryrdlock U
pthread_rwlock_trywrlock U
pthread_rwlock_unlock U
pthread_rwlock_wrlock U
__errno_location U
sem_destroy U
sem_init U
sem_post U
sem_timedwait U
sem_wait U
__cxa_guard_acquire U
__cxa_guard_release U
gettimeofday U
getrlimit64 U
sysconf U
_ZNSt4__Cr12__next_primeEm U
ceilf U
fclose U
fopen64 U
fread U
__cxa_pure_virtual U
__fxstat64 U
__isnan U
__libc_stack_end U
_exit U
ferror U
fileno U
fseek U
ftell U
fwrite U
getpagesize U
getpid U
getrusage U
localtime_r U
madvise U
mmap64 U
mprotect U
munmap U
prctl U
pthread_attr_destroy U
pthread_attr_getstack U
pthread_attr_init U
pthread_attr_setstacksize U
pthread_create U
pthread_getattr_np U
pthread_getspecific U
pthread_join U
pthread_key_create U
pthread_key_delete U
pthread_self U
pthread_setspecific U
remove U
strncpy U
syscall U
tmpfile64 U
usleep U
vfprintf U
vsnprintf U
time U
__cxa_demangle U
backtrace U
backtrace_symbols U
free U
memchr U
memmove U
sigaction U
sigemptyset U
signal U
write U
__isoc99_fscanf U
fgets U
getc U
malloc U
snprintf U
ungetc U
_ZN2v84base23MagicNumbersForDivisionIjEC1Ejjb W
_ZN2v84base17MakeCheckOpStringIiiEEPNSt4__Cr12basic_stringIcNS2_11char_traitsIcEENS2_9allocatorIcEEEET_T0_PKc W
_ZN2v84base11SharedMutexD1Ev T
_ZN2v84base7SysInfo21AmountOfVirtualMemoryEv T
_ZN2v84base21RandomNumberGenerator9NextInt64Ev T
_ZN2v84base17MakeCheckOpStringIjjEEPNSt4__Cr12basic_stringIcNS2_11char_traitsIcEENS2_9allocatorIcEEEET_T0_PKc W
_ZN2v84base17PrintCheckOperandIcEENSt4__Cr9enable_ifIXaantsr3std11is_functionINS2_14remove_pointerIT_E4typeEEE5valuesr19has_output_operatorIS5_EE5valueENS2_12basic_stringIcNS2_11char_traitsIcEENS2_9allocatorIcEEEEE4typeES5_ T
_ZN2v84base6Thread20DeleteThreadLocalKeyEi T
_ZN2v84base24SignedDivisionByConstantIjEENS0_23MagicNumbersForDivisionIT_EES3_ W
_ZN2v84base21RandomNumberGenerator10NextDoubleEv T
_ZN2v84base2OS10DebugBreakEv T
_ZN2v84base7ieee7544log2Ed T
_ZN2v84base17PrintCheckOperandIaEENSt4__Cr9enable_ifIXaantsr3std11is_functionINS2_14remove_pointerIT_E4typeEEE5valuesr19has_output_operatorIS5_EE5valueENS2_12basic_stringIcNS2_11char_traitsIcEENS2_9allocatorIcEEEEE4typeES5_ T
_ZN2v84base11SharedMutex13LockExclusiveEv T
_ZN2v84base15VLQBase64DecodeEPKcmPm T
_ZN2v84base2OS16AllocatePageSizeEv T
_ZN2v84base5debug27EnableInProcessStackDumpingEv T
_ZN2v84base17ConditionVariableD2Ev T
_ZN2v84base11SharedMutex15UnlockExclusiveEv T
_ZNK2v84base9TimeDelta9InSecondsEv T
_ZN2v84base4bits11SignedMod32Eii T
_ZN2v84base7ieee7545acoshEd T
_ZN2v84base14RecursiveMutexC2Ev T
_ZN2v84base9SemaphoreC1Ei T
_ZN2v84base9TimeDelta12FromTimespecE8timespec T
_ZNK2v84base9TimeDelta10ToTimespecEv T
_ZN2v84base6ThreadD2Ev T
_ZN2v84base2OS18GetCurrentThreadIdEv T
_ZN2v84base7ieee7544coshEd T
_ZN2v84base17PrintCheckOperandIPKaEENSt4__Cr9enable_ifIXaantsr3std11is_functionINS4_14remove_pointerIT_E4typeEEE5valuesr19has_output_operatorIS7_EE5valueENS4_12basic_stringIcNS4_11char_traitsIcEENS4_9allocatorIcEEEEE4typeES7_ T
_ZN2v84base15RegionAllocator5MergeENSt4__Cr21__tree_const_iteratorIPNS1_6RegionEPNS2_11__tree_nodeIS5_PvEElEESA_ T
_ZN2v84base6Thread14SetThreadLocalEiPv T
_ZN2v84base5Mutex4LockEv T
_ZNK2v84base5debug10StackTrace14OutputToStreamEPNSt4__Cr13basic_ostreamIcNS3_11char_traitsIcEEEE T
_ZN2v84base7ieee7543powEdd T
_ZN2v84base21RandomNumberGenerator14NextSampleSlowEmmRKNSt4__Cr13unordered_setImNS2_4hashImEENS2_8equal_toImEENS2_9allocatorImEEEE T
_ZNK2v84base5debug10StackTrace5PrintEv T
_ZNK2v84base4Time9ToTimevalEv T
_ZNK2v84base9TimeDelta10InSecondsFEv T
_ZN2v84base6Thread4JoinEv T
_ZN2v84base12hash_combineEmm T
_ZN2v84base17ConditionVariable9NotifyOneEv T
_ZN2v84base15RegionAllocatorD2Ev T
_ZN2v84base6Thread14GetThreadLocalEi T
_ZN2v84base15RegionAllocatorC1Emmm T
_ZTVNSt4__Cr15basic_streambufIcNS_11char_traitsIcEEEE V
_ZN2v84base7ieee7545atan2Edd T
_ZN2v84base6Thread5StartEv T
_ZTVN2v84base13PageAllocatorE D
_ZN2v84base2OS14HasLazyCommitsEv T
_ZN2v84base20BoundedPageAllocator18DiscardSystemPagesEPvm T
_ZN2v84base20BoundedPageAllocatorC1EPNS_13PageAllocatorEmmm T
_ZN2v84base2OS7ReleaseEPvm T
_ZN2v84base14RecursiveMutexD1Ev T
_ZN2v84base2OS7StrNCpyEPciPKcm T
_ZN2v84base2OS22AdjustSchedulingParamsEv T
_ZN2v84base2OS25GetSharedLibraryAddressesEv T
_ZN2v84base5debug10StackTraceD2Ev T
_ZN2v84base7ieee7543sinEd T
_ZN2v84base17PrintCheckOperandIPKhEENSt4__Cr9enable_ifIXaantsr3std11is_functionINS4_14remove_pointerIT_E4typeEEE5valuesr19has_output_operatorIS7_EE5valueENS4_12basic_stringIcNS4_11char_traitsIcEENS4_9allocatorIcEEEEE4typeES7_ T
_ZN2v84base2OS8AllocateEPvmmNS1_16MemoryPermissionE T
_ZN2v84baselsERNSt4__Cr13basic_ostreamIcNS1_11char_traitsIcEEEERKNS0_4TimeE T
_ZN2v84base5Mutex7TryLockEv T
_ZN2v84base21RandomNumberGeneratorC2Ev T
_ZNK2v84base23MagicNumbersForDivisionImEeqERKS2_ W
_ZN2v84base17MakeCheckOpStringIxxEEPNSt4__Cr12basic_stringIcNS2_11char_traitsIcEENS2_9allocatorIcEEEET_T0_PKc W
_ZN2v84base11SharedMutexD2Ev T
_ZN2v84base11ThreadTicks3NowEv T
_ZNK2v84base9TimeDelta14InMillisecondsEv T
_ZN2v84base2OS17GetGCFakeMMapFileEv T
_ZN2v84base2OS20isDirectorySeparatorEc T
_ZN2v84base2OS6FPrintEP8_IO_FILEPKcz T
_ZN2v84base6Thread8set_nameEPKc T
_ZNK2v84base9TimeDelta15InMillisecondsFEv T
_ZN2v84base15RegionAllocator20FreeListRemoveRegionEPNS1_6RegionE T
_Z9V8_DcheckPKciS0_ T
_ZN2v84base4bits20SignedSaturatedSub64Ell T
_ZN2v84base15RegionAllocator14AllocateRegionEm T
_ZN2v84base17PrintCheckOperandImEENSt4__Cr9enable_ifIXaantsr3std11is_functionINS2_14remove_pointerIT_E4typeEEE5valuesr19has_output_operatorIS5_EE5valueENS2_12basic_stringIcNS2_11char_traitsIcEENS2_9allocatorIcEEEEE4typeES5_ W
_ZN2v84base11SharedMutex12UnlockSharedEv T
_ZNK2v84base9TimeDelta7InHoursEv T
_ZN2v84base5MutexC1Ev T
_ZN2v84base23MagicNumbersForDivisionIjEC2Ejjb W
_ZN2v84base17PrintCheckOperandIxEENSt4__Cr9enable_ifIXaantsr3std11is_functionINS2_14remove_pointerIT_E4typeEEE5valuesr19has_output_operatorIS5_EE5valueENS2_12basic_stringIcNS2_11char_traitsIcEENS2_9allocatorIcEEEEE4typeES5_ W
_ZN2v84base11SharedMutex13TryLockSharedEv T
_ZN2v84base2OS11GetUserTimeEPjS2_ T
_ZN2v84base2OS5PrintEPKcz T
_ZN2v84base2OS8SNPrintFEPciPKcz T
_ZNK2v84base5debug10StackTrace8ToStringEv T
_ZN2v84base4Time17NowFromSystemTimeEv T
_ZN2v84base5Stack13GetStackStartEv T
_ZN2v84base2OS11VPrintErrorEPKcP13__va_list_tag T
_ZN2v84base2OS14SetPermissionsEPvmNS1_16MemoryPermissionE T
_ZN2v84base4Time12FromTimespecE8timespec T
_ZN2v84base9SemaphoreC2Ei T
_ZN2v84base15RegionAllocator18FreeListFindRegionEm T
_ZN2v84base17PrintCheckOperandIPcEENSt4__Cr9enable_ifIXaantsr3std11is_functionINS3_14remove_pointerIT_E4typeEEE5valuesr19has_output_operatorIS6_EE5valueENS3_12basic_stringIcNS3_11char_traitsIcEENS3_9allocatorIcEEEEE4typeES6_ T
_ZN2v84base13PageAllocator17SetRandomMmapSeedEl T
_ZN2v84base9Semaphore7WaitForERKNS0_9TimeDeltaE T
_ZN2v84base2OS12GetLastErrorEv T
_ZN2v84base2OS7VFPrintEP8_IO_FILEPKcP13__va_list_tag T
_ZN2v84base17PrintCheckOperandIiEENSt4__Cr9enable_ifIXaantsr3std11is_functionINS2_14remove_pointerIT_E4typeEEE5valuesr19has_output_operatorIS5_EE5valueENS2_12basic_stringIcNS2_11char_traitsIcEENS2_9allocatorIcEEEEE4typeES5_ W
_ZNK2v84base4Time10ToTimespecEv T
_ZN2v84base9TimeTicks3NowEv T
_ZN2v84base2OS16MemoryMappedFile6createEPKcmPv T
_ZN2v84base20BoundedPageAllocatorC2EPNS_13PageAllocatorEmmm T
_ZN2v84base2OS17TimeCurrentMillisEv T
_ZN2v84base5debug10StackTraceC2EPKPKvm T
_ZN2v84base17MakeCheckOpStringIPKvS3_EEPNSt4__Cr12basic_stringIcNS4_11char_traitsIcEENS4_9allocatorIcEEEET_T0_PKc W
_ZN2v84base17PrintCheckOperandIPaEENSt4__Cr9enable_ifIXaantsr3std11is_functionINS3_14remove_pointerIT_E4typeEEE5valuesr19has_output_operatorIS6_EE5valueENS3_12basic_stringIcNS3_11char_traitsIcEENS3_9allocatorIcEEEEE4typeES6_ T
_ZN2v84base15RegionAllocator10TrimRegionEmm T
_ZN2v84base17PrintCheckOperandIPKvEENSt4__Cr9enable_ifIXaantsr3std11is_functionINS4_14remove_pointerIT_E4typeEEE5valuesr19has_output_operatorIS7_EE5valueENS4_12basic_stringIcNS4_11char_traitsIcEENS4_9allocatorIcEEEEE4typeES7_ W
_ZN2v84base21RandomNumberGenerator9NextBytesEPvm T
_ZN2v84base5debug22DisableSignalStackDumpEv T
_ZN2v84base4Time10FromJsTimeEd T
_ZN2v84base4Time11FromTimevalE7timeval T
_ZN2v84base2OS5FOpenEPKcS3_ T
_ZTCNSt4__Cr18basic_stringstreamIcNS_11char_traitsIcEENS_9allocatorIcEEEE0_NS_13basic_istreamIcS2_EE V
_ZN2v84base26UnsignedDivisionByConstantImEENS0_23MagicNumbersForDivisionIT_EES3_j W
_ZN2v84base17ConditionVariableC1Ev T
_ZN2v84base21RandomNumberGenerator4NextEi T
_ZN2v84base2OS19GetCurrentProcessIdEv T
_ZN2v84base12CallOnceImplEPNSt4__Cr6atomicIhEENS1_8functionIFvvEEE T
_ZN2v84base17ConditionVariable7WaitForEPNS0_5MutexERKNS0_9TimeDeltaE T
_ZN2v84base14RecursiveMutexD2Ev T
_ZN2v84base23MagicNumbersForDivisionImEC1Emjb W
_ZN2v84base7ieee7544asinEd T
_ZNK2v84base15RegionAllocator5PrintERNSt4__Cr13basic_ostreamIcNS2_11char_traitsIcEEEE T
_ZTVN2v84base6ThreadE D
_ZN2v84base4bits21SignedMulHighAndAdd32Eiii T
_ZN2v84base20BoundedPageAllocator12ReleasePagesEPvmm T
_ZN2v84base5debug10StackTraceC1EPKPKvm T
_ZN2v84base7ieee7543logEd T
_ZN2v84base18SetPrintStackTraceEPFvvE T
_ZNK2v84base9TimeDelta13InNanosecondsEv T
_ZNK2v84base9TimeDelta14InMicrosecondsEv T
_ZN2v84base15RegionAllocatorC2Emmm T
_ZN2v84base4bits21RoundUpToPowerOfTwo64Em T
_ZN2v84base7ieee7545log10Ed T
_ZN2v84base17PrintCheckOperandIPhEENSt4__Cr9enable_ifIXaantsr3std11is_functionINS3_14remove_pointerIT_E4typeEEE5valuesr19has_output_operatorIS6_EE5valueENS3_12basic_stringIcNS3_11char_traitsIcEENS3_9allocatorIcEEEEE4typeES6_ T
_ZNK2v84base9TimeDelta9InMinutesEv T
_ZN2v84base2OS18DirectorySeparatorEv T
_ZN2v84base5Mutex6UnlockEv T
_ZTVNSt4__Cr15basic_stringbufIcNS_11char_traitsIcEENS_9allocatorIcEEEE V
_ZN2v84base17PrintCheckOperandIyEENSt4__Cr9enable_ifIXaantsr3std11is_functionINS2_14remove_pointerIT_E4typeEEE5valuesr19has_output_operatorIS5_EE5valueENS2_12basic_stringIcNS2_11char_traitsIcEENS2_9allocatorIcEEEEE4typeES5_ W
_ZN2v84base17MakeCheckOpStringIllEEPNSt4__Cr12basic_stringIcNS2_11char_traitsIcEENS2_9allocatorIcEEEET_T0_PKc W
_ZN2v84base13PageAllocator13AllocatePagesEPvmmNS_13PageAllocator10PermissionE T
_ZN2v84base17ConditionVariable4WaitEPNS0_5MutexE T
_ZN2v84base11SharedMutex16TryLockExclusiveEv T
_ZN2v84base21RandomNumberGenerator16SetEntropySourceEPFbPhmE T
_ZN2v84base17MakeCheckOpStringImmEEPNSt4__Cr12basic_stringIcNS2_11char_traitsIcEENS2_9allocatorIcEEEET_T0_PKc W
_ZN2v84base7ieee7543tanEd T
_ZN2v84base17PrintCheckOperandIlEENSt4__Cr9enable_ifIXaantsr3std11is_functionINS2_14remove_pointerIT_E4typeEEE5valuesr19has_output_operatorIS5_EE5valueENS2_12basic_stringIcNS2_11char_traitsIcEENS2_9allocatorIcEEEEE4typeES5_ W
_ZN2v84base5MutexC2Ev T
_ZN2v84base3CPUC1Ev T
_ZN2v84base2OS18DiscardSystemPagesEPvm T
_ZN2v84base9Semaphore6SignalEv T
_ZN2v84base21RandomNumberGenerator10NextSampleEmm T
_ZN2v84base2OS5SleepENS0_9TimeDeltaE T
_ZN2v84base20BoundedPageAllocator14SetPermissionsEPvmNS_13PageAllocator10PermissionE T
_ZN2v84base17PrintCheckOperandIPKcEENSt4__Cr9enable_ifIXaantsr3std11is_functionINS4_14remove_pointerIT_E4typeEEE5valuesr19has_output_operatorIS7_EE5valueENS4_12basic_stringIcNS4_11char_traitsIcEENS4_9allocatorIcEEEEE4typeES7_ T
_ZN2v84base14RecursiveMutex4LockEv T
_ZN2v84base14RecursiveMutex7TryLockEv T
_ZN2v84base11ThreadTicks11IsSupportedEv T
_ZNK2v84base15RegionAllocator6Region5PrintERNSt4__Cr13basic_ostreamIcNS3_11char_traitsIcEEEE T
_ZN2v84base7SysInfo22AmountOfPhysicalMemoryEv T
_ZN2v84base6ThreadD0Ev T
_ZN2v84base4bits11SignedDiv32Eii T
_ZN2v84base17PrintCheckOperandIjEENSt4__Cr9enable_ifIXaantsr3std11is_functionINS2_14remove_pointerIT_E4typeEEE5valuesr19has_output_operatorIS5_EE5valueENS2_12basic_stringIcNS2_11char_traitsIcEENS2_9allocatorIcEEEEE4typeES5_ W
_ZN2v84base2OS9VSNPrintFEPciPKcP13__va_list_tag T
_ZN2v84base9TimeTicks16IsHighResolutionEv T
_ZN2v84base15RegionAllocator5SplitEPNS1_6RegionEm T
_ZN2v84base5debug10StackTraceC1Ev T
_ZN2v84base11SharedMutexC1Ev T
_ZN2v84base15RegionAllocator10FindRegionEm T
_ZN2v84base6Thread20CreateThreadLocalKeyEv T
_ZN2v84base2OS18SignalCodeMovingGCEv T
_ZN2v84base11SharedMutex10LockSharedEv T
_ZTCNSt4__Cr19basic_ostringstreamIcNS_11char_traitsIcEENS_9allocatorIcEEEE0_NS_13basic_ostreamIcS2_EE V
_ZN2v84base17PrintCheckOperandIhEENSt4__Cr9enable_ifIXaantsr3std11is_functionINS2_14remove_pointerIT_E4typeEEE5valuesr19has_output_operatorIS5_EE5valueENS2_12basic_stringIcNS2_11char_traitsIcEENS2_9allocatorIcEEEEE4typeES5_ T
_ZNK2v84base4Time8ToJsTimeEv T
_ZN2v84base13PageAllocatorC1Ev T
_ZN2v84base9SemaphoreD1Ev T
_ZN2v84base6ThreadC2ERKNS1_7OptionsE T
_ZN2v84base5MutexD1Ev T
_ZTVNSt4__Cr18basic_stringstreamIcNS_11char_traitsIcEENS_9allocatorIcEEEE V
_ZN2v84base7ieee7545atanhEd T
_ZN2v84base14RecursiveMutex6UnlockEv T
_ZN2v84base21RandomNumberGenerator11MurmurHash3Em T
_ZNK2v84base23MagicNumbersForDivisionIjEeqERKS2_ W
_ZN2v84base10hash_valueEj T
_ZN2v84base13PageAllocator12ReleasePagesEPvmm T
_ZN2v84base15RegionAllocator14AllocateRegionEPNS0_21RandomNumberGeneratorEm T
_ZN2v84base27charToDigitDecodeForTestingEh T
_ZN2v84base2OS15LogFileOpenModeE D
_ZN2v84base2OS6VPrintEPKcP13__va_list_tag T
_ZNK2v84base5debug10StackTrace9AddressesEPm T
_ZN2v84base7ieee7544tanhEd T
_ZN2v84base17ConditionVariableC2Ev T
_ZN2v84base7ieee7543cosEd T
_ZN2v84base7ieee7544cbrtEd T
_ZNK2v84base20BoundedPageAllocator5beginEv T
_ZN2v84base10hash_valueEm T
_ZNK2v84base9TimeDelta23InMillisecondsRoundedUpEv T
_ZNK2v84base20BoundedPageAllocator4sizeEv T
_ZN2v84base7ieee7545expm1Ed T
_ZN2v84base7ieee7545log1pEd T
_ZN2v84base13PageAllocator14SetPermissionsEPvmNS_13PageAllocator10PermissionE T
_ZN2v84base9Semaphore4WaitEv T
_ZN2v84base17MakeCheckOpStringIyyEEPNSt4__Cr12basic_stringIcNS2_11char_traitsIcEENS2_9allocatorIcEEEET_T0_PKc W
_ZN2v84base2OS10PrintErrorEPKcz T
_ZN2v84base9TimeTicks17HighResolutionNowEv T
_ZN2v84base2OS17OpenTemporaryFileEv T
_ZN2v84base2OS5AbortEv T
_ZN2v84base4Time3NowEv T
_ZNK2v84base9TimeDelta6InDaysEv T
_ZN2v84base15RegionAllocator17FreeListAddRegionEPNS1_6RegionE T
_ZN2v84base21RandomNumberGenerator7SetSeedEl T
_ZN2v84base4bits19SignedMulOverflow32EiiPi T
_ZN2v84base20BoundedPageAllocator15AllocatePagesAtEmmNS_13PageAllocator10PermissionE T
_ZN2v84base23MagicNumbersForDivisionImEC2Emjb W
_ZN2v84base2OS17SetRandomMmapSeedEl T
_ZN2v84base15RegionAllocator6IsFreeEmm T
_ZN2v84base5Stack23GetCurrentStackPositionEv T
_Z8V8_FatalPKciS0_z T
_ZN2v84base7ieee7544atanEd T
_ZN2v84base17ConditionVariable9NotifyAllEv T
_ZN2v84base2OS16MemoryMappedFile4openEPKcNS2_8FileModeE T
_ZN2v84base20BoundedPageAllocator9FreePagesEPvm T
_ZN2v84base3CPUC2Ev T
_ZTVNSt4__Cr19basic_ostringstreamIcNS_11char_traitsIcEENS_9allocatorIcEEEE V
_ZN2v84base2OS14CommitPageSizeEv T
_ZN2v84base17ConditionVariableD1Ev T
_ZN2v84base7SysInfo18NumberOfProcessorsEv T
_ZN2v84base4bits21RoundUpToPowerOfTwo32Ej T
_ZN2v84base7ieee7545asinhEd T
_ZN2v84base14RecursiveMutexC1Ev T
_ZN2v84base6ThreadD1Ev T
_ZN2v84base5debug10StackTraceC2Ev T
_ZN2v84base15RegionAllocator16AllocateRegionAtEmm T
_ZN2v84base7ieee7544sinhEd T
_ZN2v84base11SharedMutexC2Ev T
_ZN2v84base4bits15SignedMulHigh32Eii T
_ZN2v84base20BoundedPageAllocator13AllocatePagesEPvmmNS_13PageAllocator10PermissionE T
_ZN2v84base2OS17GetRandomMmapAddrEv T
_ZN2v84base26UnsignedDivisionByConstantIjEENS0_23MagicNumbersForDivisionIT_EES3_j W
_ZN2v84base12RelativePathEPKcS2_ T
_ZN2v84base21RandomNumberGenerator7NextIntEi T
_ZN2v84base15RegionAllocatorD1Ev T
_ZN2v84base24SignedDivisionByConstantImEENS0_23MagicNumbersForDivisionIT_EES3_ W
_ZN2v84base10hash_valueEy T
_ZN2v84base13PageAllocatorC2Ev T
_ZN2v84base9SemaphoreD2Ev T
_ZN2v84base15RegionAllocator11CheckRegionEm T
_ZTVN2v84base20BoundedPageAllocatorE D
_ZN2v84base13PageAllocator9FreePagesEPvm T
_ZN2v84base5MutexD2Ev T
_ZN2v84base2OS24ActivationFrameAlignmentEv T
_ZN2v84base2OS19CreateTimezoneCacheEv T
_ZN2v84base7ieee7543expEd T
_ZN2v84base2OS6RemoveEPKc T
_ZN2v84base17SetDcheckFunctionEPFvPKciS2_E T
_ZN2v84base13PageAllocator17GetRandomMmapAddrEv T
_ZN2v84base13PageAllocator18DiscardSystemPagesEPvm T
_ZN2v84base2OS11ExitProcessEi T
_ZN2v84base4bits20SignedSaturatedAdd64Ell T
_ZN2v84base5debug10StackTraceD1Ev T
_ZN2v84base7ieee7544acosEd T
_ZN2v84base2OS4FreeEPvm T
_ZN2v84base21RandomNumberGeneratorC1Ev T
_ZN2v84base2OS10InitializeEbPKc T
